*** Darwin 10x10 ***
Turn = 0.
  0123456789
0 fffff.....
1 .hh..h...t
2 ..........
3 ..........
4 ..........
5 ..........
6 ..........
7 ..........
8 ..........
9 ..........

Turn = 1.
  0123456789
0 fffffh....
1 .h.h.....t
2 ..........
3 ..........
4 ..........
5 ..........
6 ..........
7 ..........
8 ..........
9 ..........

Turn = 2.
  0123456789
0 fffffh....
1 .h..h....t
2 ..........
3 ..........
4 ..........
5 ..........
6 ..........
7 ..........
8 ..........
9 ..........

Turn = 3.
  0123456789
0 fffffh....
1 .h...h...t
2 ..........
3 ..........
4 ..........
5 ..........
6 ..........
7 ..........
8 ..........
9 ..........

Turn = 4.
  0123456789
0 fffffh....
1 .h....h..t
2 ..........
3 ..........
4 ..........
5 ..........
6 ..........
7 ..........
8 ..........
9 ..........

Turn = 5.
  0123456789
0 fffffh....
1 .h.....h.t
2 ..........
3 ..........
4 ..........
5 ..........
6 ..........
7 ..........
8 ..........
9 ..........

Turn = 6.
  0123456789
0 fffffh....
1 .h......ht
2 ..........
3 ..........
4 ..........
5 ..........
6 ..........
7 ..........
8 ..........
9 ..........

Turn = 7.
  0123456789
0 fffffh....
1 .h......ht
2 ..........
3 ..........
4 ..........
5 ..........
6 ..........
7 ..........
8 ..........
9 ..........

Turn = 8.
  0123456789
0 fffffh....
1 .h......ht
2 ..........
3 ..........
4 ..........
5 ..........
6 ..........
7 ..........
8 ..........
9 ..........

Turn = 9.
  0123456789
0 fffffh....
1 .h......tt
2 ..........
3 ..........
4 ..........
5 ..........
6 ..........
7 ..........
8 ..........
9 ..........

Turn = 10.
  0123456789
0 fffffh....
1 .h......tt
2 ..........
3 ..........
4 ..........
5 ..........
6 ..........
7 ..........
8 ..........
9 ..........

*** Darwin 15x13 ***
Turn = 0.
  0123456789012
0 ...t.........
1 .....f.......
2 .............
3 t..ft........
4 .f...f.......
5 ....f.....hh.
6 .ffr.........
7 ......h......
8 .............
9 .............
0 ..f..........
1 .......t.....
2 .............
3 .............
4 ....t........

Turn = 1.
  0123456789012
0 ...t.........
1 .....f.......
2 .............
3 t..ft........
4 .f...f.......
5 ....f....h..h
6 .ff.r........
7 .....h.......
8 .............
9 .............
0 ..f..........
1 .......t.....
2 .............
3 .............
4 ....t........

Turn = 2.
  0123456789012
0 ...t.........
1 .....f.......
2 .............
3 t..ft........
4 .f...f.......
5 ....f...h...h
6 .ff..r.......
7 ....h........
8 .............
9 .............
0 ..f..........
1 .......t.....
2 .............
3 .............
4 ....t........

Turn = 3.
  0123456789012
0 ...t.........
1 .....f.......
2 .............
3 t..ft........
4 .f...f.......
5 ....f..h....h
6 .ff...r......
7 ...h.........
8 .............
9 .............
0 ..f..........
1 .......t.....
2 .............
3 .............
4 ....t........

Turn = 4.
  0123456789012
0 ...t.........
1 .....f.......
2 .............
3 t..tt........
4 .f...f.......
5 ....f.h.....h
6 .ff....r.....
7 ..h..........
8 .............
9 .............
0 ..f..........
1 .......t.....
2 .............
3 .............
4 ....t........

Turn = 5.
  0123456789012
0 ...t.........
1 .....f.......
2 .............
3 t..tt........
4 .f...f.......
5 ....fh......h
6 .ff.....r....
7 .h...........
8 .............
9 .............
0 ..f..........
1 .......t.....
2 .............
3 .............
4 ....t........

Turn = 6.
  0123456789012
0 ...t.........
1 .....f.......
2 .............
3 t..tt........
4 .f...f.......
5 ....fh......h
6 .ff......r...
7 h............
8 .............
9 .............
0 ..f..........
1 .......t.....
2 .............
3 .............
4 ....t........

Turn = 7.
  0123456789012
0 ...t.........
1 .....f.......
2 .............
3 t..tt........
4 .f...f.......
5 ....fh......h
6 .ff.......r..
7 h............
8 .............
9 .............
0 ..f..........
1 .......t.....
2 .............
3 .............
4 ....t........

Turn = 8.
  0123456789012
0 ...t.........
1 .....f.......
2 .............
3 t..tt........
4 .f...f.......
5 ....fh......h
6 .ff........r.
7 h............
8 .............
9 .............
0 ..f..........
1 .......t.....
2 .............
3 .............
4 ....t........

Turn = 9.
  0123456789012
0 ...t.........
1 .....f.......
2 .............
3 t..tt........
4 .f...f.......
5 ....fh......h
6 .ff.........r
7 h............
8 .............
9 .............
0 ..f..........
1 .......t.....
2 .............
3 .............
4 ....t........

Turn = 10.
  0123456789012
0 ...t.........
1 .....f.......
2 .............
3 t..tt........
4 .f...f.......
5 ....fh......h
6 .ff.........r
7 h............
8 .............
9 .............
0 ..f..........
1 .......t.....
2 .............
3 .............
4 ....t........

*** Darwin 15x17 ***
Turn = 0.
  01234567890123456
0 ..r.frtrfht.t.t.h
1 tftrfh..rtf..thr.
2 ht...rf.r..tftr..
3 hfh.h.thrftr.frrr
4 rfhtf.rfrfr...rtf
5 ttrrfrfffhtfhf.r.
6 hh.htrht.frrh.frh
7 trrth.rr.ttrh.trh
8 rt.rrt.fr.rhh.h.t
9 ft.fhhfrftrtr.hft
0 hrt...h..ftfrr.rt
1 rhfrh.rtf.hth.hf.
2 hff.t.fr..ftthhht
3 frftt.tf.rhhfth.t
4 tf...fthrrhtf.r.h

Turn = 1.
  01234567890123456
0 ..r.frt.ftt.t.th.
1 tft.fr.rrtt..th..
2 ht.r.rr.rr.tftrr.
3 htt.h.rrr.rr.trtr
4 rrrrf.rfrrr...rrr
5 rrrrfrrffhtfhf.r.
6 hr.hth.t.tttt.frr
7 trrttt.r.ttrr.trh
8 tt.rrtrr.trhh.h.t
9 ttr..hfrfrrtr..ft
0 hr.rrhr..fttrrrtt
1 rhfrr..tt.ttt.hf.
2 rrr.t.tr.rttthhht
3 frftt.tr..htttr.t
4 tt...frrrrhtt.r.h

Turn = 2.
  01234567890123456
0 ...rftt.ftt.t.th.
1 tft.rr.r.rt..tt..
2 ht...rrrrr.tftrr.
3 httrh.rr.rrr.trrr
4 rrrrf.rrrrr..r.rr
5 rrrrfrrtfttftfr..
6 hr.hth.t.tttt.frr
7 trrttt.r.ttrr.rrr
8 ttr..trr.rtrr.t.t
9 tt.rrhrrfrrrr..ft
0 h.rrrhr..fttrrttt
1 rhrrt..ttrttt.rhr
2 rrr.t.tr..ttthh.t
3 frftt.trr.tttrr.t
4 tt...frr.rrtt.r.h

Turn = 3.
  01234567890123456
0 ...rrtt.trt.t.th.
1 tft.rrr.rrt..tt..
2 tt...rrr.r.tfttr.
3 htrrh.rr.rr..rrrr
4 rrrrrrrrrrrr.t.r.
5 rrrrr.rtrttttrrrr
6 rr.htt.t.ttrt.f.r
7 tttttt..trtrr.rrr
8 ttt..trr.rrrr..rr
9 tt.rrhr.frrtt..fr
0 t.rrtrrt.rttttttt
1 rhr.t..ttrttt.ttt
2 rrrrt.t.r.tttth.t
3 ftttt.rrr.trttt.t
4 tt...frr.rrrtr..h

Turn = 4.
  01234567890123456
0 ...rrrt.rrt.t.tt.
1 tttr.tt.rrt..tt..
2 tt..r.r.rr.tfttrr
3 ttrrrrr..r.r.ttr.
4 rrrrrrrrrrrr.r.rr
5 rrrrr.rr.rrrttt.r
6 rr.htt.rrtrtt.frr
7 tttttt..trtrr...r
8 ttt..rr..rrrr.rrr
9 ttrrtrrrrrtrr..fr
0 t.r.trrt.rttttttt
1 th.rt..ttrttt.ttt
2 rrrtt.t.t.tttth.t
3 ftrtt.rr.trrttt.t
4 tt...fr.rrrtrr..t

Turn = 5.
  01234567890123456
0 ...rrtt.rrt.t.tt.
1 ttrr.tt.rrr..ttr.
2 tt.r.r..rr.ttttrr
3 trrrrrr...r.rttr.
4 rrrrrrrrrrrr.t..r
5 rrrrt.rr.rrrtttrr
6 rr.ttt.rrrttt.t.r
7 rttttt..rrtrr...r
8 tttr.rr..rrrr..rr
9 ttt.trrrrrrrt.rrr
0 tr..rrr.rrrtttttt
1 th.rr..tttttt.ttt
2 rrrtt.t.t.ttttt.t
3 trrttr...trtttt.t
4 tt...frrrrrtrr..t

Turn = 6.
  01234567890123456
0 ..r.rttrrtr.t.tt.
1 ttr..tt..rr..ttt.
2 ttrrrrr.r..ttttr.
3 trtrr...r..rrrtrr
4 trrrrrr.rrrr.r.r.
5 rrrrrtrrrrtrtrtrr
6 rr.ttt..rrttt.t.r
7 tttrtt...rrtt...r
8 tttr.tt.rrrrr..rr
9 ttt.ttt.rrrrr.rrr
0 tt.r.trrrrrtrtrrr
1 th.rr..tttttt.ttt
2 ttrrr.t.t.ttttt.t
3 ttrrr....tttttt.t
4 tt.r.rrrrrttrr..t

Turn = 7.
  01234567890123456
0 .r.r.trrtrr.t.tt.
1 ttt..rr...r..ttt.
2 ttrrrrrr.r.ttttt.
3 trtrr...rrrrrrtt.
4 rrrrrrrr..rr.rr.r
5 rrrrrr.rrrr.rrttr
6 tr.rtrrr.rrtt.t.r
7 tttttt...rtrr..r.
8 trtt.tt.rrrrr.rr.
9 trt.ttt.rrrrrrrrr
0 ttr.rttrrrrt.trtr
1 tt.r...rr.ttt.ttt
2 ttttt.t.trttttt.t
3 ttrtt....trtttt.t
4 tt.r.rrrrrrttt..t

Turn = 8.
  01234567890123456
0 r.r..rrtrrr.t.tt.
1 ttt..rr..r...ttt.
2 tttrrrrr.rrttttt.
3 tttrrr..rrrrrrrr.
4 rrrrr.r.r.r..rr.r
5 rrrrrrrr.rr.rrttr
6 tr.rtrr..rrtt.tr.
7 ttttttt..rtrr.r..
8 trtt.ttrrrrrrrr..
9 trt.rtt.r.rrrrrrt
0 trr.rtttr.rt.trrt
1 ttr....rrrttt.rrt
2 ttrtt.t.trttttt.t
3 ttrttrrrrrrtrtt.t
4 tt.t.....rrtrt..t

Turn = 9.
  01234567890123456
0 rt..rr.rrr..t.tt.
1 ttt..rr.r.r..ttt.
2 ttttrrr.r.rttttt.
3 ttrrrr.rrrrttrrt.
4 rrrr.rr.rrr..rtr.
5 rrrrrrr..r..trttt
6 tt.ttrrr.rrtt.rr.
7 ttttttt.rrrrr.t..
8 rrtt.trrrr.rrrr..
9 tttrrtt..rrrrrrrr
0 ttt..ttt.rtt.tttr
1 ttr....rrrttt.ttt
2 ttrttrrrrtttttt.t
3 ttrtt.r.ttrtrtt.t
4 tt.t.....rrrrt..t

Turn = 10.
  01234567890123456
0 rt.rrr.rrr..t.tt.
1 rtt.rrrr..r..ttt.
2 tttt..rr.r.rtttt.
3 ttrrr...rrrrtrtt.
4 rrrrrrrrrrr..rrr.
5 rrrtrrrrr...trrtt
6 tt.ttt...rrtt.rr.
7 tttttttrrr.rrrr..
8 ttttrrtrrrrrr.r..
9 tttt.tt..rrrr.rrt
0 ttt..ttt.rrrrtttt
1 ttt..r.trrrrt.ttt
2 tttttrrttttttrt.t
3 ttttt...rrrrrtt.t
4 tt.t.....rrrrt..t

*** Darwin 17x14 ***
Turn = 0.
  01234567890123
0 .f.r.rt...f.rh
1 thtrt.f.tt..rf
2 f.f...hfftht.h
3 hhfhrf.r.htft.
4 .ht.rffrhff...
5 thrhrr.rr.tfr.
6 rtrh..tfrf.f.h
7 .rfhhth.ffrhr.
8 ht.htfthhtth..
9 rfhfhrrht...t.
0 hfh..ht.f.frtr
1 htrhht...rr.th
2 rfhrr..tfrt.tt
3 rthhff.rr..ttr
4 t.thhhrrt..ht.
5 hr.f.rtr.h.hfh
6 htrtttr.rhhh.t

Turn = 1.
  01234567890123
0 .f..rtt...f.rr
1 thtr..f.tt.t.r
2 t.f.rr.ftthth.
3 hhf.r.h.rhttt.
4 thtrrrfrrft...
5 t.rrrrr.r.tf.h
6 .tth..tfrf.fr.
7 rr.hhtt.rfrh.r
8 rtrhttttrr..h.
9 rfhftrthtr..t.
0 hfh..tt.trr.tt
1 htthht....rrtt
2 rftrr..trrt.tt
3 tthrff.rr..ttt
4 t.th.rtr.r.tth
5 rr.frtrrr.h.f.
6 htttttr.rhhh.t

Turn = 2.
  01234567890123
0 .f..rtt...f.rr
1 ttt.rrf.tt.tr.
2 t.f.r..ftthtt.
3 hhf..rh.ttttt.
4 thtrtrfrrr.r.h
5 t.tttrr..rtf..
6 .tth..tfrf.f..
7 r.rhttt.rfh.rr
8 rtrhttttrrr..h
9 rfrttttttr..t.
0 hfh..tt.trr.tt
1 htthrt....r.tt
2 rttrr..trrtttt
3 ttrrff.rr..ttt
4 t.tt.tr.r.rtth
5 rr.frrrrrh..f.
6 htttrrr.rhhh.t

Turn = 3.
  01234567890123
0 .f..rrt...f.rr
1 ttt.rrf.tt.rr.
2 t.f..r.fttttt.
3 thf..rrrttttth
4 thtrtrr.r.rt..
5 t.tttrrr.rrf..
6 .ttr..rr.f.f.r
7 r.rtttt.rrh...
8 rrrhttttrr..th
9 rfrrrtttrrr.t.
0 hth..tt.rrr.tt
1 htttrt...r..tt
2 rtrrr..trrtttt
3 ttrtff.rr..ttt
4 t.tt.rr..rrrth
5 rt.frtr.rh..t.
6 htttttttrrhh.t

Turn = 4.
  01234567890123
0 .t..rrt...f.rr
1 ttt.rrf.tt.rr.
2 t.t...rrttttth
3 ttf..rrrrttrt.
4 tttttrrrr.rr..
5 t.ttt.r..r.f.r
6 rttr.trr.frf..
7 ..rtttt.rrr...
8 rrrtttttrr..th
9 rrrr.ttttrr.t.
0 htt.ttt.trr.tt
1 htttrt..r.r.tt
2 rrrtr..trr.ttt
3 ttttff.tt..ttt
4 t.tt.rr..rr.th
5 tt.rtr.rrh.rt.
6 tttttrrrrrhh.t

Turn = 5.
  01234567890123
0 .t..rrt...frrr
1 ttt.rrfrtt..rr
2 t.t...rrttttr.
3 ttt..rrrrtttt.
4 ttttttrr.rtt.r
5 r.ttt.rr...f..
6 rttr.t...frf..
7 r.rttttrrrr...
8 .rrtttttrr..tt
9 rrrt.ttttr.tt.
0 rtt.ttt.trr.tt
1 ttttrt.rr.r.tt
2 rrrtr..t..rttt
3 ttttffrtt.rttt
4 t.tt.r...r..tt
5 tt.ttr.rrr.tt.
6 tttttrrrrrrr.t

Turn = 6.
  01234567890123
0 .t.rrrtr..frrr
1 ttt..rrrtt..rr
2 t.t...r.rttt.r
3 ttt.r.trrrtttr
4 rtttttr.rrtt..
5 r.ttt.r.r..f..
6 rttr.t...rrf..
7 r.rttttrrr.r..
8 .rrrtttttt..tt
9 rttr.ttttt.tt.
0 ttt.ttt.rtt.tt
1 ttttttr.r..rtt
2 rrrtt.rt..rrtt
3 rrrrff.tt.rttt
4 t.ttr....r..tt
5 tt.trrrrrr.tt.
6 tttttr.rrrrr.t

Turn = 7.
  01234567890123
0 .tt.rrtr..rrrr
1 ttt..rrrtt..rr
2 t.t...r.rttt.r
3 tttr..tttrtttr
4 rtttttr.rrtt..
5 r.ttt.r..r.t..
6 rttr.t...rrf..
7 rrrttttrr.r.t.
8 ..rrtttttt..tt
9 rtt..tttrt.tt.
0 tttrttt.rtt.rt
1 tttttrr.r..rtt
2 rtttt.rt..rtrt
3 rtttff.tt.rrrt
4 t.ttt.r.r.r.tt
5 tt.trr.rr.rtt.
6 ttttt.rrr.rr.t

Turn = 8.
  01234567890123
0 .ttr.rt.rrr.rr
1 ttt..rrrtt...r
2 t.t..r..rrttrr
3 rtrr..tttrttrr
4 rtttttr..ttt..
5 r.ttt.r.r.rt..
6 rrtr.t..r.rf..
7 rrrtttttt..rt.
8 r.rrttttrt..tt
9 .t.r.tttrt.tt.
0 tttrttt.rttrrt
1 tttrtttr...r.t
2 rrrrt.rr..rrtt
3 rrtttfrtr.rttt
4 .rttt..rr..rtt
5 tt.ttt..r.rrt.
6 ttttt.rrr.rr.t

Turn = 9.
  01234567890123
0 .trrrrt.rrr.r.
1 ttt...rrttr.rr
2 t.t.r...rr.trr
3 rtrt..ttttttrr
4 rtttttt..ttt..
5 r.ttt.t.r.rr..
6 rrtr.t.r..rrr.
7 rrrrttttt..r..
8 r..ttttttt..tt
9 .tr.tttttt.tr.
0 tttrtttr.tttrt
1 ttttttrr....rt
2 ttrrt.rt.r.trt
3 .trttfrrt.rrtr
4 rrrtt..rt..rtr
5 tt.tttrr..rrt.
6 ttttt.r.r.rr.t

Turn = 10.
  01234567890123
0 .trrrrt.rrrr.r
1 ttt...trrrr.r.
2 t.tr....r.rrrr
3 rttt..tttttttt
4 rtttttt..ttt..
5 rrttt.tr..ttr.
6 .rtr.tt...rr..
7 rrrtttttt...r.
8 r..ttttttt..tt
9 .tt.tttttt.tr.
0 tttttttt.tttrt
1 ttttttrr....rr
2 ttrrt.r.rr.rtt
3 .trrrfrrr..ttr
4 rrtt.r.rr.rrtr
5 rt.tttrr..rrt.
6 rrtttr.r..rr.t

*** Darwin 10x15 ***
Turn = 0.
  012345678901234
0 .f.f.t...h.h..r
1 .....thrh.f..fr
2 .r......r..f...
3 .h..f..rrt...t.
4 ....rt.h.r.t.ff
5 rh.r.hrff..rt..
6 rt.tr..t...h.tr
7 .f..r.fthhthtrh
8 hr....f..frr...
9 h...f..ft.t..hh

Turn = 1.
  012345678901234
0 .f.f.t..h...h.r
1 .r...tr..hf..fr
2 ......h.r..f...
3 h...f..r.t...t.
4 r...r.rrrr.t.tf
5 r.rr...ff..tt..
6 .t.trhrth..h.tt
7 .f...rfth.rrrr.
8 h.....f..frr..h
9 hr..f..ft.t.h.h

Turn = 2.
  012345678901234
0 .r.f.t..h....hr
1 .r...tt...f..rr
2 .......r.h.f...
3 r...f.hr.r...t.
4 r....rrrrr.t.tt
5 r.rr...rr..tt..
6 .t.rrhrrh..h.tt
7 .t...rrttrrrrr.
8 h.....f..f.r..h
9 hr..f..tt.th..h

Turn = 3.
  012345678901234
0 .r.f.t..h....rr
1 .r...tt...f..rr
2 ......r..h.f...
3 r...f.h.rr...t.
4 r.rr.r.rrr.t.tt
5 .r....rrr..tt..
6 .t.rrhrrr.rt.tt
7 .t....rtrr.r...
8 h....rr..fr.rrh
9 rr..f..tt.tt..h

Turn = 4.
  012345678901234
0 ..rf.t..h....rr
1 ..r..tt...f..r.
2 .....r...h.f..r
3 r.rrf...r.r..t.
4 .r....rrrr.t.tt
5 ..rrrrrrr.rtt..
6 .t...r.rr..t.tt
7 .t...hrrrr.....
8 h........rrr..h
9 rr..frrtt.ttrrh

Turn = 5.
  012345678901234
0 ..rr.t..h....rr
1 ...r.tt...f...r
2 ..rrr...r..f...
3 r...f...rh.r.tr
4 ..rrr.rr..rt.tt
5 ..r..rrrrr.tt..
6 .t..r..rr..t.tt
7 .t....rrrr.....
8 r....h..rr.r..h
9 rr..frttt.trrrh

Turn = 6.
  012345678901234
0 ..rr.t..h....rr
1 ..rrrtt.r.f...r
2 r..r....r..f...
3 ...rr.....r.rtr
4 ..r.rr.r.h.t.tr
5 .....r.rr..tt..
6 .trr..rrrr.t.tt
7 .t....rrr......
8 r....h.rtr.r..h
9 r.r.rrttt.trrrr

Turn = 7.
  012345678901234
0 ..rrrt..r....rr
1 r.r.rr..r.f...r
2 ..rr..r.r.rf...
3 ..rrr.......rrr
4 ....rrr....t.tt
5 .......rrr.tt..
6 .tr...rrr..t.tt
7 rtr..rrr.r.....
8 .....h.rt...r.r
9 r..rrrtrtrtrrrr

Turn = 8.
  012345678901234
0 r.rrr.r.r...r.r
1 ...rr.r.r.r...r
2 .rrrr..r..rf...
3 ..r..rr.....rrr
4 ...r.r.....t.rr
5 .......rr..tt..
6 rtt...rrrr.t.tt
7 .t..rrr........
8 ..r.rr.rtt...rr
9 r..r.trttrttrrr

Turn = 9.
  012345678901234
0 r..r.r.r.r.r..r
1 ..rrr..r.rr....
2 r.rrrrr...rf..r
3 .r...........rr
4 ..r.r.r....trrr
5 r.....rrr..tt..
6 .tt....r...t.tt
7 .t.rrr..rr.....
8 ...rrrr.tt..rrr
9 .rr..rtttttt.rr

Turn = 10.
  012345678901234
0 .r.r..r.r.rr..r
1 ..rrrr..rrr....
2 r.rrrr...r.f..r
3 r...........r.r
4 rr.r..r....tr.r
5 ......rrr..trr.
6 .tt...r....t.tt
7 .trrr...rr..rrr
8 ...rrrt.rr...rr
9 .rr.r.tttrtt...

*** Darwin 18x11 ***
Turn = 0.
  01234567890
0 ....t....h.
1 ....h......
2 hh.....f...
3 t.........h
4 r........r.
5 h......h...
6 ...........
7 ...t..r....
8 ..........r
9 ..hfrrt.r..
0 ........h..
1 h....h.....
2 ......f..f.
3 ....f......
4 .rf.....t..
5 ...........
6 .......h..h
7 ...th....r.

Turn = 1.
  01234567890
0 ....t.....h
1 .h..t......
2 t......f...
3 t..........
4 r.........h
5 r.......hr.
6 ......r....
7 ...t.......
8 ..h.rr.....
9 ...f..tr..r
0 .....h.....
1 .h......h..
2 ......f..f.
3 ....f......
4 r.f.....t..
5 .......h...
6 ...........
7 ...th....rr

Turn = 2.
  01234567890
0 .h..t.....h
1 ....t......
2 t......f...
3 t..........
4 r..........
5 .r....r.h.h
6 .........r.
7 ..htrr.....
8 ...........
9 ...f.hrr...
0 ..........r
1 ..h........
2 ......f.hf.
3 ....f......
4 r.f....ht..
5 ...........
6 ...........
7 ...th....rr

Turn = 3.
  01234567890
0 .h..t.....h
1 ....t......
2 t......f...
3 t..........
4 .r....r....
5 ..r......h.
6 ..h..r....h
7 ...tt....r.
8 .....h.....
9 ...f.rr....
0 ...........
1 ...h......r
2 ......f..f.
3 r...f..hh..
4 ..f.....t..
5 ...........
6 ...........
7 ...tt....rr

Turn = 4.
  01234567890
0 .h..t.....h
1 ....t......
2 t......f...
3 t.....r....
4 ..r........
5 ..hr.r....h
6 ...........
7 ...tth....h
8 .........r.
9 ...frr.....
0 ...........
1 ....h......
2 r.....fh.fr
3 ....f...h..
4 ..f.....t..
5 ...........
6 ...........
7 ...tt...r.r

Turn = 5.
  01234567890
0 .h..t.....h
1 ....t......
2 t.....rf...
3 t..........
4 ..hr.r.....
5 ....r.....h
6 .....h.....
7 ...tt......
8 ..........h
9 ...rrr...r.
0 ...........
1 r....h.h...
2 ......f..f.
3 ....f...h.r
4 ..f.....t..
5 ...........
6 ...........
7 ...tt..r..r

Turn = 6.
  01234567890
0 .h..t.....h
1 ....t.r....
2 t......f...
3 t.h..r.....
4 ....r......
5 .....r....h
6 .....h.....
7 ...tt......
8 ...r.r.....
9 ...r......h
0 r......h.r.
1 ......h....
2 ......f..f.
3 ....f...t..
4 ..f.....t.r
5 ...........
6 ...........
7 ...tt.r...r

Turn = 7.
  01234567890
0 .h..t.r...h
1 ....t......
2 t.h..r.f...
3 t..........
4 .....r.....
5 .....hr...h
6 ...........
7 ...ttr.....
8 ...t.......
9 r.r....h...
0 ..........h
1 .......h.r.
2 ......f..f.
3 ....f...t..
4 ..f.....t..
5 ..........r
6 ...........
7 ...ttr....r

Turn = 8.
  01234567890
0 .h..t.r...h
1 ..h.tr.....
2 t......f...
3 t..........
4 .....hr....
5 .......r..h
6 .....r.....
7 ...tt......
8 r..t...h...
9 .r.........
0 ...........
1 ........hrh
2 ......f....
3 ....f...tt.
4 ..f.....t..
5 ...........
6 ..........r
7 ...trr....r

Turn = 9.
  01234567890
0 .hh.tt....h
1 ....tt.....
2 t......f...
3 t....h.....
4 .......r...
5 .....r..r.h
6 ...........
7 r..tt..h...
8 ...t.......
9 r..........
0 ...........
1 ........h..
2 ......f..rh
3 ....f...tt.
4 ..f.....t..
5 ...........
6 ..........r
7 ...trr...r.

Turn = 10.
  01234567890
0 .hh.tt....h
1 ....tt.....
2 t....h.f...
3 t..........
4 .....r..r..
5 .........rh
6 r......h...
7 ...tt......
8 ...t.......
9 r..........
0 ...........
1 .........h.
2 ......f..r.
3 ....f...trr
4 ..f.....t..
5 ...........
6 ....r....r.
7 ...t.r..r..

*** Darwin 18x11 ***
Turn = 0.
  01234567890
0 .r..r...htt
1 trt..ffr.hf
2 h...r....f.
3 ....rr...h.
4 fht....t..r
5 ...fr...rhf
6 .th...t.tth
7 t...f..tr..
8 ft...rt....
9 ...t.......
0 fthrh.thfh.
1 r...f...h.t
2 f.h..f.t...
3 r.h...t.f.h
4 ft.t.r.t.hr
5 ..h.t.ff...
6 .f.h.f.t.rh
7 r...t...r..

Turn = 1.
  01234567890
0 r.rr....ttt
1 tr...frr.hf
2 .h..rr...f.
3 .h.r.....h.
4 f.t....trr.
5 ...f.r..h.f
6 .th...t.tth
7 t...fr.rr..
8 tt....t....
9 ...t.......
0 ftttt.t.fh.
1 r...t..h..t
2 .rh..f.tt..
3 r.h...t.f.h
4 ftht..rt.hr
5 ....t.ff..h
6 .f..hf.tr..
7 r...t....r.

Turn = 2.
  01234567890
0 r.rr..r.ttt
1 t.r..rr..hf
2 .hhr.r...f.
3 ..r.....rh.
4 f.t....tr..
5 ...f..rh..f
6 .th..rt.tth
7 t...f..rr..
8 tt....t....
9 ...t.......
0 ftttt.t.fh.
1 ....t..h..t
2 rrr..f.tt..
3 r.r...t.t.h
4 rrrt..rr.hr
5 ....t.ft..r
6 .f..hf.rr..
7 r...t.....r

Turn = 3.
  01234567890
0 r.r...r.ttt
1 thrr.rr..tf
2 ..rr.r..rf.
3 .r.......h.
4 f.t....tt..
5 ...f.rtr..f
6 .th...t.tth
7 t...f..r...
8 tt....t.r..
9 ...t.......
0 ftttt.t.fh.
1 ....t..t..t
2 rrr..f.tt..
3 r..r..t.t.h
4 rrr.r.tt.hr
5 ....t.ft..r
6 .f..tt.rr..
7 r...t.....r

Turn = 4.
  01234567890
0 .rr..r..ttt
1 thrr.r..rtt
2 ..rrr.r..f.
3 r........h.
4 f.t..r.tt..
5 ...f..tt..f
6 .tt...t.ttt
7 t...f...r..
8 tt....t....
9 ...t....r..
0 ttttt.t.fh.
1 ....t..t..t
2 rr...f.tt..
3 rr..r.t.t.h
4 rr.r.rtt.rr
5 ....t.ft...
6 .f..tt.rr.r
7 r...t.....r

Turn = 5.
  01234567890
0 .r.rr...ttt
1 trrrr.r.ttt
2 ...r.....t.
3 r.t..rr..h.
4 f.t....tt..
5 ...f..tt..t
6 .tt...t.ttt
7 t...f....r.
8 tt....t....
9 ...t....r..
0 ttttt.t.rh.
1 r...t..t..t
2 r....f.tt..
3 rr...rr.t.h
4 r.r.rrrt.rr
5 ....t.ft...
6 rf..tt.rr.r
7 ....t....r.

Turn = 6.
  01234567890
0 .r.rr...ttt
1 trrr.r.tttt
2 ..r..r...t.
3 r.t......h.
4 r.t...ttt..
5 ...f..tt..t
6 .tt...t.ttt
7 t...f.....r
8 tt....t....
9 ...t....r..
0 rtttt.t.rr.
1 r...t..t..t
2 r....frtt..
3 r.r..rr.trr
4 r..rtr.t..r
5 r...t.ft...
6 .f..tt.tt.r
7 ....t...r..

Turn = 7.
  01234567890
0 r..r....ttt
1 ttrrrrrtttt
2 ..t......t.
3 r.t......h.
4 r.t...ttt..
5 ...f..tt..t
6 .tt...t.ttt
7 t...f.....r
8 tt....t....
9 r..t...r.r.
0 rtttt.t.r..
1 r...t.rt..t
2 r....frttr.
3 ...r.r..t.r
4 r..rrr.t..r
5 r...r.ft...
6 .f..tt.tt..
7 ....t...t.r

Turn = 8.
  01234567890
0 r...rr.rttt
1 ttrr..r.ttt
2 ..t.r....t.
3 r.t......t.
4 ..t...ttt..
5 r..f..tt..t
6 .tt...t.ttt
7 t...f.....t
8 rt....t..r.
9 r..t..r.r..
0 rtttt.r....
1 r...t.rt..t
2 r....frttt.
3 r...rr..t.r
4 ...rrr.t.r.
5 .r.r..ft...
6 .f..tt.tt..
7 ....t...t.r

Turn = 9.
  01234567890
0 t...rr.tttt
1 tttt...rttt
2 ..t......t.
3 ..t.r....t.
4 r.t...ttt..
5 ...f..tt..t
6 ttt...t.ttt
7 t...f....rt
8 rt....t.r..
9 r..t.r.....
0 ttttt.r....
1 r...t.rt..t
2 r....rtttt.
3 r..rrr..t..
4 ...r...tr.r
5 ..rr.rft...
6 .f..tt.tt..
7 ....t...t.r

Turn = 10.
  01234567890
0 t...r.ttrtt
1 tttt...rrtt
2 ..t......t.
3 ..t......t.
4 ..t.r.ttt..
5 r..f..tt..t
6 ttt...t.trt
7 t...f...rrt
8 tt....t....
9 r..tr......
0 tttttr.....
1 t...tr.t..t
2 r..r.ttttt.
3 r.....r.t..
4 ..rrr..rr..
5 ..r..rtt..r
6 .f..tr.tt.r
7 ....t...t..

*** Darwin 11x11 ***
Turn = 0.
  01234567890
0 ...f.r.....
1 .f.........
2 .h.....f...
3 ...........
4 r.....tt...
5 ......t...h
6 ...........
7 ...........
8 ...........
9 ...t.......
0 ....tr..r..

Turn = 1.
  01234567890
0 ...fr......
1 .f.........
2 .......f...
3 .h.........
4 r.....tt..h
5 ......t....
6 ...........
7 ...........
8 ...........
9 ...t.r.....
0 ....t....r.

Turn = 2.
  01234567890
0 ...rr......
1 .f.........
2 .......f...
3 r.........h
4 .h....tt...
5 ......t....
6 ...........
7 ...........
8 .....r.....
9 ...t.......
0 ....t.....r

Turn = 3.
  01234567890
0 ...rr......
1 .f.........
2 r......f..h
3 ...........
4 ......tt...
5 .h....t....
6 ...........
7 .....r.....
8 ...........
9 ...t.......
0 ....t.....r

Turn = 4.
  01234567890
0 ...rr......
1 rf........h
2 .......f...
3 ...........
4 ......tt...
5 ......t....
6 .h...r.....
7 ...........
8 ...........
9 ...t.......
0 ....t.....r

Turn = 5.
  01234567890
0 r..r.r....h
1 .f.........
2 .......f...
3 ...........
4 ......tt...
5 .....rt....
6 ...........
7 .h.........
8 ...........
9 ...t.......
0 ....t.....r

Turn = 6.
  01234567890
0 r..r..r...h
1 .f.........
2 .......f...
3 ...........
4 .....rtt...
5 ......t....
6 ...........
7 ...........
8 .h.........
9 ...t.......
0 ....t.....r

Turn = 7.
  01234567890
0 .rr....r..h
1 .f.........
2 .......f...
3 .....r.....
4 ......tt...
5 ......t....
6 ...........
7 ...........
8 ...........
9 .h.t.......
0 ....t....r.

Turn = 8.
  01234567890
0 .rr.....r.h
1 .f.........
2 .....r.f...
3 ...........
4 ......tt...
5 ......t....
6 ...........
7 ...........
8 ...........
9 ...t.......
0 .h..t...r..

Turn = 9.
  01234567890
0 .rr......rh
1 .f...r.....
2 .......f...
3 ...........
4 ......tt...
5 ......t....
6 ...........
7 ...........
8 ...........
9 ...t.......
0 .h..t..r...

Turn = 10.
  01234567890
0 .rr..r...rr
1 .f.........
2 .......f...
3 ...........
4 ......tt...
5 ......t....
6 ...........
7 ...........
8 ...........
9 ...t.......
0 .h..t.r....

*** Darwin 19x18 ***
Turn = 0.
  012345678901234567
0 ..................
1 ..................
2 ..................
3 ......h...........
4 ..................
5 ..................
6 ..................
7 ..................
8 ............f.....
9 ..................
0 ..................
1 ..................
2 ....r.............
3 ..................
4 .........r........
5 ......f..f......r.
6 ..................
7 ..................
8 ..................

Turn = 1.
  012345678901234567
0 ..................
1 ..................
2 ..................
3 .......h..........
4 ..................
5 ..................
6 ..................
7 ..................
8 ............f.....
9 ..................
0 ..................
1 ..................
2 .....r............
3 ..................
4 ........r.......r.
5 ......f..f........
6 ..................
7 ..................
8 ..................

Turn = 2.
  012345678901234567
0 ..................
1 ..................
2 ..................
3 ........h.........
4 ..................
5 ..................
6 ..................
7 ..................
8 ............f.....
9 ..................
0 ..................
1 ..................
2 ......r...........
3 ................r.
4 .......r..........
5 ......f..f........
6 ..................
7 ..................
8 ..................

Turn = 3.
  012345678901234567
0 ..................
1 ..................
2 ..................
3 .........h........
4 ..................
5 ..................
6 ..................
7 ..................
8 ............f.....
9 ..................
0 ..................
1 ..................
2 .......r........r.
3 ..................
4 ......r...........
5 ......f..f........
6 ..................
7 ..................
8 ..................

Turn = 4.
  012345678901234567
0 ..................
1 ..................
2 ..................
3 ..........h.......
4 ..................
5 ..................
6 ..................
7 ..................
8 ............f.....
9 ..................
0 ..................
1 ................r.
2 ........r.........
3 ..................
4 .....r............
5 ......f..f........
6 ..................
7 ..................
8 ..................

Turn = 5.
  012345678901234567
0 ..................
1 ..................
2 ..................
3 ...........h......
4 ..................
5 ..................
6 ..................
7 ..................
8 ............f.....
9 ..................
0 ................r.
1 ..................
2 .........r........
3 ..................
4 ....r.............
5 ......f..f........
6 ..................
7 ..................
8 ..................

Turn = 6.
  012345678901234567
0 ..................
1 ..................
2 ..................
3 ............h.....
4 ..................
5 ..................
6 ..................
7 ..................
8 ............f.....
9 ................r.
0 ..................
1 ..................
2 ..........r.......
3 ..................
4 ...r..............
5 ......f..f........
6 ..................
7 ..................
8 ..................

Turn = 7.
  012345678901234567
0 ..................
1 ..................
2 ..................
3 .............h....
4 ..................
5 ..................
6 ..................
7 ..................
8 ............f...r.
9 ..................
0 ..................
1 ..................
2 ...........r......
3 ..................
4 ..r...............
5 ......f..f........
6 ..................
7 ..................
8 ..................

Turn = 8.
  012345678901234567
0 ..................
1 ..................
2 ..................
3 ..............h...
4 ..................
5 ..................
6 ..................
7 ................r.
8 ............f.....
9 ..................
0 ..................
1 ..................
2 ............r.....
3 ..................
4 .r................
5 ......f..f........
6 ..................
7 ..................
8 ..................

Turn = 9.
  012345678901234567
0 ..................
1 ..................
2 ..................
3 ...............h..
4 ..................
5 ..................
6 ................r.
7 ..................
8 ............f.....
9 ..................
0 ..................
1 ..................
2 .............r....
3 ..................
4 r.................
5 ......f..f........
6 ..................
7 ..................
8 ..................

Turn = 10.
  012345678901234567
0 ..................
1 ..................
2 ..................
3 ................h.
4 ..................
5 ................r.
6 ..................
7 ..................
8 ............f.....
9 ..................
0 ..................
1 ..................
2 ..............r...
3 ..................
4 r.................
5 ......f..f........
6 ..................
7 ..................
8 ..................

*** Darwin 15x10 ***
Turn = 0.
  0123456789
0 hf.r.htftt
1 rrhfrhthrt
2 h.frr..rrh
3 ttthfhhhtr
4 rfr.rhh.ff
5 rrthrfthff
6 tt.rftht.h
7 hrt.r.rrfr
8 ftrr.rrfrh
9 rttrttfrtt
0 hftrftrffr
1 rh.tthrfff
2 tfffr.hffh
3 tr.rt.rtr.
4 f.hr.httrr

Turn = 1.
  0123456789
0 rrhrh.tttt
1 rr.rrhtrrt
2 t.frr.r.rt
3 ttt.rrr.tt
4 rtttrhtttt
5 ttthrfttff
6 tr.r.tht.h
7 httrr.rrfr
8 ftrrt.rrrt
9 rtrrttfrrr
0 rrr.trrffr
1 rhttttttff
2 tffrrh.tfh
3 tt.r.rrrr.
4 fh.rh.trrr

Turn = 2.
  0123456789
0 rrhrr.tttt
1 rr.rrhtrrt
2 t.rrrrr.rr
3 ttt.rr..tr
4 rtttrttttr
5 trtt.ftttf
6 ttr.rtrr.h
7 tttrr.rrfr
8 ftrtt.rrrr
9 rrrrttfrrr
0 rrr.trrffr
1 rhttttttff
2 tttrrh.tfh
3 tt..rrrtr.
4 fh.rr.trrr

Turn = 3.
  0123456789
0 rrhrr.tttt
1 r.rrrhrttt
2 t.rrrrr.rr
3 rtt.rr..tt
4 rtttrttttt
5 tttt.ttttt
6 ttt.rtrr.t
7 tttrr.rrfr
8 ttrrt.rrrr
9 rrrtttrrrr
0 rrr.tttftr
1 rtrrrttttf
2 ttrrrr.tfh
3 tt..rrrtr.
4 fh.rr.trrr

Turn = 4.
  0123456789
0 rrrr.rrttt
1 t.rrrhrttt
2 t.t.rrr.tr
3 rttrrr..tt
4 rttttrrttt
5 tttt.ttttt
6 tttr.trt.t
7 ttttt.rrfr
8 rtrr.rrrrr
9 rrttttrrrr
0 rtr.tttftr
1 rtrrrttttf
2 rtrrrr.rth
3 tt..rrrt.r
4 fh.rr.trrr

Turn = 5.
  0123456789
0 rrr.rrrttt
1 t.rrrhtttt
2 t.trrrr.tt
3 tttr.r..tt
4 tttr.rtttt
5 ttttrttttt
6 tttt.trt.t
7 ttrtt.trft
8 rtr.rrrrrr
9 rttttttrrr
0 rtt.rtrttr
1 rtrrtrtttf
2 tt.rrr.rrh
3 ttrrrrrt.r
4 ttr...trrr

Turn = 6.
  0123456789
0 r.rrrrrttt
1 rrr.rrtttt
2 t.ttrr..tt
3 tttrrrr.tt
4 tttt..tttt
5 tttt.ttttt
6 ttttrttt.t
7 ttrtt.trft
8 rrr.rrrrrr
9 rrrttttrrr
0 rttrrttttr
1 ttt.rrtttf
2 tt.rrr.rhr
3 ttrrrrrtrr
4 trr...trr.

Turn = 7.
  0123456789
0 r.rrrrrttt
1 r.r.rrtttt
2 rrttrr..tt
3 ttttrrr.tt
4 tttt..trtt
5 tttt.ttrtt
6 tttttttr.t
7 ttrtt.trft
8 rrr.rtrrrr
9 rrrrttrrrr
0 tttrrtrrtr
1 ttt.rrtttr
2 ttrr..rrhr
3 tttrrrrtrr
4 trr...trr.

Turn = 8.
  0123456789
0 r.rrrrrttt
1 rr..rrtttt
2 rrttrr..tt
3 trtrrrr.tt
4 tttt..trtt
5 tttt.ttrtt
6 ttttttt.rt
7 ttrtt.trrt
8 trr.rrtrrr
9 trrtrrtrrr
0 ttttrrtrrr
1 ttt.rrrrrr
2 ttrrr.rrhr
3 tttr..rrrr
4 trt..rrrr.

Turn = 9.
  0123456789
0 r.rrrrrttt
1 rr..rrtttt
2 rtttrt..tt
3 trtrr.r.rt
4 ttrt.rtrtt
5 tttt.trrtt
6 ttttttt.rr
7 ttrtt.trrt
8 trr.ttrrrr
9 trrtttrrrr
0 ttttrrrrrr
1 tttrrrrrrr
2 ttrr..rrrr
3 tttr..rrr.
4 tr.r.rrrrr

Turn = 10.
  0123456789
0 rrrrrrrttt
1 r..rr.tttt
2 rtttrt..tt
3 ttrrr.rrrt
4 tttt.rrr.t
5 tttt.rtttr
6 ttttttt.rr
7 ttrtt.ttrr
8 trr.tttrrr
9 trttttrrrr
0 ttttrrrrrr
1 ttrrrrrrrr
2 tttt..rrrr
3 tttt..rrr.
4 tt..rrrrrr

*** Darwin 10x18 ***
Turn = 0.
  012345678901234567
0 hftf..ft.f.hfrf.ff
1 tt...rf..fhhf...f.
2 .hh.fht..ff.t.....
3 ftf...t...hr..r.rt
4 hhhr.h.f..........
5 ff..h..r.r.ht..r..
6 f.f..f.t.f..rr..h.
7 .rf..r......trh.r.
8 t...h......r.tt...
9 tr....f.....r.ttr.

Turn = 1.
  012345678901234567
0 tftf..ft.fh.f.f.ff
1 tt..rhf..fhhfr..f.
2 .th.f.t..ff.t.....
3 ftf..ht...h.r...rr
4 hhrr...f......r...
5 ff...h..rrh.r...r.
6 f.f..f.t..r.tr..r.
7 ..f.........trr.r.
8 tr...r.......tt.r.
9 tr..h.f....rr.tt..

Turn = 2.
  012345678901234567
0 tttf.hft.fh.f.f.ff
1 tt.r..t..fhhf...f.
2 .tt.fht..ff.tt...r
3 ftf...t....h.r..r.
4 hhrr...f....r.....
5 ff....h.rh....r.rr
6 f.f..f.t.r.rtr..r.
7 ..f.........trr.r.
8 tr..........rtt...
9 rr..hrf....r..tt..

Turn = 3.
  012345678901234567
0 tttf.htt.fh.f.f.ff
1 ttr..ht..fhhf...fr
2 .tt.f.t..ff.tt....
3 ttr...t.....rt....
4 hhr....f....r...r.
5 ff.r...hh.......rr
6 f.f..f.tt..rrrr.r.
7 ..f......r..rrt.r.
8 rr..........rtt...
9 tt..hrf.....r.tt..

Turn = 4.
  012345678901234567
0 tttf.htt.fh.f.f.fr
1 ttt..ht..fhht...fr
2 .tt.f.t..ff.tr....
3 ttr...t.....rr....
4 hhr....f....r...r.
5 ff.....hh.......r.
6 f.fr.f.tt..rrrrr.r
7 ..f.........rrtr..
8 rr.......r..rtt...
9 rr..rrf......rtt..

Turn = 5.
  012345678901234567
0 tttf.htt.fh.f.f.fr
1 ttt..tt..fhht...fr
2 .tt.f.t..ff.trr...
3 ttt...t.....r.....
4 htt....f...r...r..
5 ff.....th..r......
6 f.f..f.tt...rrrrr.
7 .rfr.......r.rrr.r
8 r...........rrrr..
9 r.r.rrf..r...rr...

Turn = 6.
  012345678901234567
0 tttt.ttt.fh.t.f.rr
1 ttt..tt..fhhtr..rr
2 .tt.f.t..ff.t..r..
3 ttt...t...........
4 ttt....f..rrr.r...
5 ff.....tt.........
6 frf..f.tt....rrr..
7 ..f.......r.rrrrr.
8 r..r.r......rrrr.r
9 r..rr.f..r...r.r..

Turn = 7.
  012345678901234567
0 tttt.ttt.fh.trfrr.
1 ttt..tt..fhht...rr
2 .tt.f.t..ff.t...r.
3 ttt...t....r......
4 ttt....f.r...r....
5 fr.....tt...r.....
6 frf..f.tt....rrr..
7 r.f..r...r..rrrr..
8 ...rr.......rrr.r.
9 .r.r..f.r....rr.rr

Turn = 8.
  012345678901234567
0 tttt.ttt.fh.trrrr.
1 ttt..tt..fhtt...r.
2 .tt.f.t..ffrt...rr
3 ttt...t...........
4 ttt....tr...r.....
5 fr.....tt.....rr..
6 rrf..r.tt...rrr...
7 r.f.rr..r...rr....
8 ...r........rrrrr.
9 ..rr..fr.....rr.rr

Turn = 9.
  012345678901234567
0 tttt.ttt.fh.ttrrr.
1 ttt..tt..ftrt....r
2 .tt.f.t..ffrt.....
3 ttt...t.........rr
4 ttt....tt..r..rr..
5 rt.....tt.....r...
6 rr.rrr.tt...rr....
7 r.fr.r.r....rrr...
8 ............rr..rr
9 ..rr..rr.....rrr.r

Turn = 10.
  012345678901234567
0 tttt.ttt.ft.ttrrr.
1 ttt..tt..frrt....r
2 .tt.f.t..fftt.....
3 ttt...t.......rr..
4 ttt....tt.r...r.rr
5 tt..r..tt....r....
6 t.rr..rtt...r.r...
7 r.fr..rr....rr..r.
8 ...r.......r.rr..r
9 ..r..rr......r.r.r
